{
  "name": "Hywel ap Iorwerth",
  "fullname": "The Rt Hon Sir Hywel ap Iorwerth KOBC MBE PC, 1st Earl of Caernarfon",
  "peerages": {
    "1st Earl of Caernarfon": "2021-05-13"
  },
  "positions": [
    {
      "name": "Secretary of State for Wales",
      "from": "2021-03-07",
      "to": "2021-03-07"
    }
  ]
}