{
  "success": true,
  "results": [
    {
      "peerages": [
        {
          "prefix": "The Rt Hon",
          "title": "1st Earl of Caernarfon",
          "granted": "2021-05-10"
        }
      ],
      "facesteal": {
        "link": "https://upload.wikimedia.org/wikipedia/commons/c/c9/Mark_Drakeford_%28cropped%29.jpg",
        "desc": "Mark Drakeford"
      },
      "name": "Hywel ap Iorwerth",
      "affiliations": [
        {
          "partyName": "Independent",
          "from": "2021-03-07",
          "to": "2021-03-11",
          "party": "indy"
        },
        {
          "partyName": "Liberal Democrats",
          "from": "2021-03-12",
          "to": "2021-05-07",
          "party": "lib"
        },
        {
          "partyName": "Independent",
          "from": "2021-05-08",
          "to": "2021-05-09",
          "party": "indy"
        },
        {
          "partyName": "Crossbench",
          "from": "2021-05-10",
          "party": "crossbench"
        }
      ],
      "positions": [
        {
          "precededBy": "Nicholas Clack",
          "from": "2021-05-10",
          "id": "ways_and_means",
          "to": "2021-07-05",
          "title": "Chair of Ways and Means",
          "succeededBy": "Zachary Henderson"
        },
        {
          "precededBy": "Zachary Henderson",
          "from": "2021-07-06",
          "id": "speaker",
          "title": "Speaker of the House"
        },
        {
          "precededBy": "Llywelyn ap Iorwerth",
          "from": "2021-03-07",
          "id": "wales",
          "to": "2021-05-15",
          "title": "Wales Secretary"
        },
        {
          "precededBy": "Lily Carter",
          "from": "2021-03-21",
          "id": "justice",
          "to": "2021-05-15",
          "title": "Justice Secretary"
        },
        {
          "precededBy": "Llywelyn ap Iorwerth",
          "from": "2021-03-07",
          "id": "chancellor",
          "to": "2021-05-15",
          "title": "Chancellor of the Exchequer",
          "succeededBy": "Charles A. Gladstone"
        },
        {
          "precededBy": "Llywelyn ap Iorwerth",
          "from": "2021-03-07",
          "id": "cornwall",
          "to": "2021-05-15",
          "title": "Cornwall Secretary"
        }
      ],
      "fullname": "The Rt Hon Sir Hywel ap Iorwerth KOBC MBE PC, 1st Earl of Caernarfon",
      "referredAs": "The Earl of Caernarfon"
    }
  ]
}